<?xml version="1.0" encoding="UTF-8" standalone="no"?>
<!-- Generator: Adobe Illustrator 16.0.0, SVG Export Plug-In . SVG Version: 6.00 Build 0)  -->

<svg:svg
   xmlns:dc="http://purl.org/dc/elements/1.1/"
   xmlns:cc="http://creativecommons.org/ns#"
   xmlns:rdf="http://www.w3.org/1999/02/22-rdf-syntax-ns#"
   xmlns:svg="http://www.w3.org/2000/svg"
   xmlns:sodipodi="http://sodipodi.sourceforge.net/DTD/sodipodi-0.dtd"
   xmlns:inkscape="http://www.inkscape.org/namespaces/inkscape"
   version="1.1"
   id="Layer_1"
   x="0px"
   y="0px"
   width="351.89099"
   height="372.28101"
   viewBox="0 0 351.891 372.281"
   enable-background="new 0 0 841.891 595.281"
   xml:space="preserve"
   sodipodi:docname="Piratpartiet.svg"
   inkscape:version="0.92.3 (2405546, 2018-03-11)"><svg:metadata
   id="metadata45"><rdf:RDF><cc:Work
       rdf:about=""><dc:format>image/svg+xml</dc:format><dc:type
         rdf:resource="http://purl.org/dc/dcmitype/StillImage" /><dc:title></dc:title></cc:Work></rdf:RDF></svg:metadata><svg:defs
   id="defs43" /><sodipodi:namedview
   pagecolor="#ffffff"
   bordercolor="#666666"
   borderopacity="1"
   objecttolerance="10"
   gridtolerance="10"
   guidetolerance="10"
   inkscape:pageopacity="0"
   inkscape:pageshadow="2"
   inkscape:window-width="2400"
   inkscape:window-height="1421"
   id="namedview41"
   showgrid="false"
   inkscape:snap-bbox="true"
   inkscape:snap-bbox-edge-midpoints="true"
   inkscape:bbox-nodes="true"
   inkscape:snap-object-midpoints="true"
   inkscape:snap-center="true"
   inkscape:snap-page="true"
   inkscape:zoom="1.7249114"
   inkscape:cx="69.365371"
   inkscape:cy="266.51762"
   inkscape:window-x="-9"
   inkscape:window-y="-9"
   inkscape:window-maximized="1"
   inkscape:current-layer="Layer_1" />
<svg:g
   id="guides"
   transform="translate(0,-222.99731)">
</svg:g>
<svg:g
   id="logga_och_text"
   transform="translate(-259.004,-118.11089)">
	<svg:g
   id="g9">
		<svg:path
   d="m 434.822,407.121 c 77.535,0 140.398,-63.303 140.398,-141.396 0,-78.083 -62.863,-141.389 -140.398,-141.389 -77.545,0 -140.401,63.307 -140.401,141.389 0,78.093 62.856,141.396 140.401,141.396"
   id="path3"
   inkscape:connector-curvature="0"
   style="fill:#ffffff" />
		<svg:path
   d="m 400.757,314.714 c -31.392,19.943 -17.297,62.111 -17.297,62.111 0,0 -18.983,-39.515 -5.701,-65.277 V 187.862 c -5.461,-0.354 -10.028,0.022 -12.891,0.863 -0.814,-1.784 4.184,-4.554 12.891,-7.224 v -23.8 h 12.762 v 20.575 c 46.062,-9.611 137.874,-10.085 138.361,70.093 0.337,56.609 -99.236,47.987 -128.125,66.345 m 34.065,-195.442 c -80.297,0 -145.392,65.574 -145.392,146.459 0,80.884 65.095,146.452 145.392,146.452 80.297,0 145.39,-65.568 145.39,-146.452 0,-80.885 -65.093,-146.459 -145.39,-146.459"
   id="path5"
   inkscape:connector-curvature="0"
   style="fill:#522e91" />
		<svg:path
   d="m 390.521,189.835 v 107.919 c 13.489,-9.219 36.626,-20.363 41.103,-41.692 8.985,-42.847 -18.073,-60.642 -41.103,-66.227"
   id="path7"
   inkscape:connector-curvature="0"
   style="fill:#522e91" />
	</svg:g>
	<svg:g
   id="g37">
		<svg:path
   d="m 261.822,474.642 v 15.752 h -2.818 V 451.29 h 10.086 c 9.176,0 13.874,4.174 13.874,11.607 0,6.852 -5.251,11.742 -13.874,11.742 h -7.268 z m 0,-2.266 h 7.268 c 6.909,0 11.055,-4.062 11.055,-9.479 0,-5.998 -3.73,-9.369 -11.055,-9.369 h -7.268 z"
   id="path11"
   inkscape:connector-curvature="0" />
		<svg:path
   d="m 294.835,490.394 h -2.846 V 451.29 h 2.846 z"
   id="path13"
   inkscape:connector-curvature="0" />
		<svg:path
   d="m 309.583,472.707 v 17.688 h -2.818 v -39.104 h 9.977 c 9.037,0 13.458,3.537 13.458,10.281 0,5.912 -4.282,10.057 -11.108,10.805 0.441,0.275 0.829,0.635 1.188,1.105 l 13.458,16.91 h -2.458 c -0.583,0 -0.969,-0.191 -1.382,-0.717 l -12.52,-15.863 c -0.636,-0.803 -1.161,-1.105 -2.681,-1.105 z m 0,-2.098 h 6.799 c 6.965,0 11.054,-3.457 11.054,-8.873 0,-5.555 -3.73,-8.207 -10.694,-8.207 h -7.158 v 17.08 z"
   id="path15"
   inkscape:connector-curvature="0" />
		<svg:path
   d="m 372.231,490.394 h -2.183 c -0.527,0 -0.829,-0.303 -1.023,-0.744 l -4.614,-11.359 h -19.208 l -4.586,11.359 c -0.139,0.414 -0.524,0.744 -1.05,0.744 h -2.156 l 16,-39.104 h 2.82 z M 346.06,476.187 h 17.521 l -7.987,-19.758 c -0.247,-0.637 -0.524,-1.438 -0.773,-2.318 -0.248,0.883 -0.524,1.684 -0.773,2.348 z"
   id="path17"
   inkscape:connector-curvature="0" />
		<svg:path
   d="m 398.796,451.291 v 2.404 H 385.06 v 36.697 h -2.818 v -36.697 h -13.816 v -2.404 z"
   id="path19"
   inkscape:connector-curvature="0" />
		<svg:g
   id="g23">
			<svg:path
   d="m 409.07,474.642 v 15.752 h -2.818 V 451.29 h 10.087 c 9.175,0 13.873,4.174 13.873,11.607 0,6.852 -5.251,11.742 -13.873,11.742 h -7.269 z m 0,-2.266 h 7.269 c 6.908,0 11.056,-4.062 11.056,-9.479 0,-5.998 -3.731,-9.369 -11.056,-9.369 h -7.269 z"
   id="path21"
   inkscape:connector-curvature="0" />
		</svg:g>
		<svg:path
   d="m 464.36,490.394 h -2.184 c -0.525,0 -0.829,-0.303 -1.023,-0.744 l -4.615,-11.359 h -19.206 l -4.587,11.359 c -0.139,0.414 -0.524,0.744 -1.05,0.744 h -2.155 l 16,-39.104 h 2.819 z m -26.171,-14.207 h 17.521 l -7.988,-19.758 c -0.247,-0.637 -0.524,-1.438 -0.773,-2.318 -0.248,0.883 -0.523,1.684 -0.772,2.348 z"
   id="path25"
   inkscape:connector-curvature="0" />
		<svg:path
   d="m 474.187,472.707 v 17.688 h -2.819 v -39.104 h 9.978 c 9.038,0 13.459,3.537 13.459,10.281 0,5.912 -4.283,10.057 -11.109,10.805 0.441,0.275 0.827,0.635 1.188,1.105 l 13.459,16.91 h -2.459 c -0.582,0 -0.97,-0.191 -1.383,-0.717 L 481.98,473.812 c -0.635,-0.803 -1.16,-1.105 -2.68,-1.105 z m 0,-2.098 h 6.798 c 6.964,0 11.055,-3.457 11.055,-8.873 0,-5.555 -3.73,-8.207 -10.694,-8.207 h -7.157 z"
   id="path27"
   inkscape:connector-curvature="0" />
		<svg:path
   d="m 529.722,451.291 v 2.404 h -13.735 v 36.697 h -2.816 v -36.697 h -13.818 v -2.404 z"
   id="path29"
   inkscape:connector-curvature="0" />
		<svg:path
   d="m 541.351,490.394 h -2.848 V 451.29 h 2.848 z"
   id="path31"
   inkscape:connector-curvature="0" />
		<svg:path
   d="m 575.885,451.291 v 2.35 h -20.588 v 15.807 h 17.135 v 2.295 h -17.135 v 16.305 h 20.588 v 2.348 h -23.437 v -39.102 h 23.437 z"
   id="path33"
   inkscape:connector-curvature="0" />
		<svg:path
   d="m 610.638,451.291 v 2.404 h -13.735 v 36.697 h -2.817 v -36.697 h -13.817 v -2.404 z"
   id="path35"
   inkscape:connector-curvature="0" />
	</svg:g>
</svg:g>
<script
   type="text/javascript"
   id="useragent-switcher">navigator.__defineGetter__(&quot;userAgent&quot;, function() {return &quot;Mozilla/5.0 (Windows NT 10.0; WOW64; rv:63.0) Gecko/20100101 Firefox/63.0&quot;})</script></svg:svg>